<!DOCTYPE svg PUBLIC "-//W3C//DTD SVG 20010904//EN" "http://www.w3.org/TR/2001/REC-SVG-20010904/DTD/svg10.dtd">
<svg version="1.0" xmlns="http://www.w3.org/2000/svg" width="1200px" height="532px" viewBox="0 0 12000 5320" preserveAspectRatio="xMidYMid meet">
<g id="layer101" fill="#5203b8" stroke="none">
<path d="M2085 4619 c-276 -34 -489 -96 -725 -211 -84 -42 -265 -146 -298 -173 -9 -7 -62 -49 -117 -93 -153 -122 -265 -243 -370 -402 -127 -190 -225 -415 -264 -605 -5 -22 -17 -76 -27 -120 -23 -104 -27 -567 -5 -685 21 -116 79 -349 102 -410 23 -60 26 -69 59 -150 137 -338 432 -730 695 -925 22 -17 42 -33 45 -36 22 -26 239 -163 384 -243 124 -69 424 -181 566 -212 303 -65 338 -69 650 -69 185 0 310 5 355 13 39 7 97 18 130 23 115 20 240 49 310 70 39 11 84 24 100 29 180 48 484 182 755 332 121 67 431 280 535 368 129 109 288 260 395 375 l45 48 -66 -54 c-36 -30 -79 -64 -95 -77 -58 -47 -271 -191 -364 -247 -91 -54 -326 -174 -400 -204 -19 -8 -53 -22 -75 -32 -42 -19 -249 -95 -300 -110 -406 -118 -648 -154 -1035 -154 -246 1 -340 7 -500 35 -86 15 -201 39 -245 51 -22 5 -58 15 -80 20 -53 13 -155 47 -177 59 -10 6 -22 10 -28 10 -18 0 -166 70 -280 132 -194 107 -462 339 -575 498 -22 30 -42 57 -46 60 -28 22 -189 317 -189 348 0 5 -7 23 -15 40 -24 47 -62 186 -79 290 -21 124 -21 420 0 544 22 130 55 257 86 328 6 14 14 34 18 45 47 131 155 292 284 421 211 210 425 317 781 390 128 27 590 26 745 0 483 -83 835 -233 1335 -569 97 -65 221 -155 271 -197 17 -14 48 -38 69 -55 59 -46 167 -133 195 -158 14 -12 53 -44 85 -72 33 -27 62 -52 65 -55 3 -3 43 -39 90 -80 47 -41 92 -82 100 -90 8 -8 35 -33 60 -54 39 -34 230 -210 294 -271 12 -11 60 -54 106 -95 47 -41 96 -86 110 -100 14 -14 63 -59 110 -100 47 -41 92 -82 100 -90 13 -13 90 -80 365 -319 29 -25 132 -112 165 -138 136 -112 407 -319 500 -383 19 -13 37 -27 40 -30 8 -9 279 -184 380 -245 366 -222 825 -417 1155 -490 39 -9 88 -20 110 -25 96 -22 188 -38 342 -60 94 -13 643 -13 736 0 170 25 220 34 367 70 l155 38 -85 -6 c-217 -17 -507 -5 -700 29 -255 45 -574 145 -800 251 -412 192 -669 345 -1033 612 -163 120 -223 162 -337 241 -47 32 -87 62 -90 65 -3 4 -21 18 -42 31 -60 39 -421 318 -517 399 -137 116 -294 250 -356 304 -168 147 -275 243 -335 300 -36 33 -97 90 -135 125 -39 36 -106 99 -150 140 -97 91 -255 235 -310 282 -22 19 -47 41 -55 49 -8 8 -46 42 -85 75 -38 33 -76 66 -84 73 -22 21 -314 258 -398 323 -70 54 -108 82 -287 211 -163 118 -477 309 -648 394 -111 55 -257 124 -263 124 -3 0 -30 12 -61 26 -58 26 -233 86 -359 123 -100 28 -247 56 -415 76 -125 16 -334 17 -445 4z"/>
</g>
<g id="layer102" fill="#6971c0" stroke="none">
<path d="M2460 5018 c-153 -24 -191 -31 -265 -45 -72 -13 -185 -42 -185 -46 0 -1 129 -2 288 -2 287 0 312 -2 512 -42 41 -9 95 -19 119 -24 74 -15 288 -80 321 -98 9 -5 31 -12 50 -16 33 -7 52 -14 162 -64 26 -11 50 -21 54 -21 20 0 421 -205 519 -265 22 -13 54 -32 70 -41 17 -9 56 -34 87 -55 31 -22 60 -39 64 -39 3 0 27 -15 53 -33 25 -19 84 -60 131 -92 47 -33 90 -63 95 -67 6 -4 31 -23 57 -41 25 -17 91 -66 146 -107 55 -41 152 -110 215 -153 63 -43 127 -89 143 -102 16 -14 58 -46 94 -72 36 -26 67 -50 70 -53 3 -3 23 -19 45 -35 22 -17 42 -32 45 -35 3 -3 28 -23 55 -45 170 -136 331 -268 375 -309 25 -22 59 -52 76 -66 85 -72 174 -149 219 -190 178 -161 385 -352 460 -425 23 -22 62 -58 87 -80 25 -22 70 -62 100 -90 208 -194 696 -607 801 -677 22 -15 54 -38 70 -50 268 -207 753 -503 987 -601 19 -8 55 -24 80 -35 192 -86 450 -167 638 -201 34 -6 90 -17 125 -23 88 -18 539 -17 632 1 196 37 358 83 470 132 62 27 237 112 280 137 56 32 224 141 241 157 6 5 48 42 94 80 232 196 429 485 529 775 68 197 111 446 111 637 0 108 -25 385 -40 448 -5 22 -17 72 -26 110 -21 92 -89 293 -124 369 -15 34 -39 87 -54 119 -14 32 -26 60 -26 63 0 3 -9 17 -19 32 -10 15 -47 72 -82 127 -35 55 -91 136 -124 180 -80 106 -309 336 -413 414 -164 123 -393 261 -527 316 -22 10 -49 21 -60 26 -11 4 -46 20 -79 34 -32 14 -82 31 -110 39 -28 8 -82 24 -121 36 -104 31 -272 62 -445 81 -151 16 -540 5 -700 -21 -151 -24 -232 -41 -375 -80 -272 -73 -652 -239 -915 -400 -102 -63 -230 -147 -240 -160 -3 -3 -36 -28 -75 -55 -38 -27 -72 -52 -75 -55 -3 -3 -39 -33 -80 -65 -115 -90 -436 -397 -355 -340 22 16 42 31 45 35 18 19 245 180 283 199 15 8 27 18 27 23 0 4 5 8 11 8 6 0 23 8 37 19 63 43 367 202 447 232 27 11 60 24 73 29 107 47 246 95 377 131 22 6 51 15 65 20 63 20 313 68 460 88 210 28 360 34 568 22 203 -12 298 -22 397 -41 28 -6 86 -17 130 -25 166 -33 380 -105 505 -171 35 -19 69 -34 74 -34 5 0 39 -19 75 -42 269 -169 439 -319 573 -502 20 -28 50 -69 67 -91 32 -43 120 -211 163 -310 27 -60 66 -199 93 -330 21 -98 21 -443 0 -545 -63 -306 -118 -445 -252 -638 -204 -292 -510 -471 -941 -549 -76 -14 -151 -17 -347 -17 -246 0 -270 2 -503 44 -170 30 -416 108 -602 192 -89 40 -175 82 -180 87 -3 4 -30 19 -60 35 -30 16 -67 37 -82 48 -14 10 -29 18 -33 18 -14 0 -341 220 -450 303 -111 83 -291 229 -381 307 -22 19 -53 46 -70 59 -16 13 -63 54 -104 90 -89 78 -76 67 -180 161 -45 41 -94 86 -109 100 -16 14 -77 70 -137 126 -60 55 -165 152 -234 214 -69 62 -148 134 -175 159 -28 25 -68 61 -90 80 -22 19 -76 66 -120 106 -44 40 -109 97 -145 126 -36 30 -81 68 -100 86 -19 17 -54 46 -76 65 -23 18 -95 76 -160 129 -152 121 -306 239 -414 314 -47 32 -87 62 -90 65 -9 10 -299 195 -345 220 -16 9 -47 26 -67 38 -81 47 -111 63 -215 116 -132 66 -302 146 -313 146 -4 0 -32 11 -61 24 -191 84 -549 181 -789 215 -41 6 -107 15 -147 21 -87 12 -676 11 -753 -2z"/>
<path d="M833 2480 c0 -36 2 -50 4 -32 2 17 2 47 0 65 -2 17 -4 3 -4 -33z"/>
</g>
<g id="layer103" fill="#6ab0fa" stroke="none">
<path d="M2460 5018 c-153 -24 -191 -31 -265 -45 -72 -13 -185 -42 -185 -46 0 -1 129 -2 288 -2 287 0 312 -2 512 -42 41 -9 95 -19 119 -24 74 -15 288 -80 321 -98 9 -5 31 -12 50 -16 33 -7 52 -14 162 -64 26 -11 50 -21 54 -21 20 0 421 -205 519 -265 22 -13 54 -32 70 -41 17 -9 56 -34 87 -55 31 -22 60 -39 64 -39 3 0 27 -15 53 -33 25 -19 84 -60 131 -92 47 -33 90 -63 95 -67 6 -4 31 -23 57 -41 25 -17 91 -66 146 -107 55 -41 152 -111 216 -154 64 -44 130 -92 148 -108 17 -15 37 -28 44 -28 7 0 14 -4 16 -8 2 -4 23 -23 48 -42 25 -19 47 -37 50 -41 3 -3 23 -18 45 -34 22 -17 42 -32 45 -35 3 -3 28 -23 55 -45 170 -136 331 -268 375 -309 25 -22 59 -52 76 -66 85 -72 174 -149 219 -190 178 -161 385 -352 460 -425 23 -22 62 -58 87 -80 25 -22 70 -62 100 -90 208 -194 696 -607 801 -677 22 -15 54 -38 70 -50 268 -207 753 -503 987 -601 19 -8 55 -24 80 -35 192 -86 450 -167 638 -201 34 -6 90 -17 125 -23 88 -18 539 -17 632 1 196 37 358 83 470 132 62 27 237 112 280 137 56 32 224 141 241 157 6 5 48 42 94 80 232 196 429 485 529 775 68 197 111 446 111 637 0 108 -25 385 -40 448 -5 22 -17 72 -26 110 -21 92 -89 293 -124 369 -15 34 -39 87 -54 119 -14 32 -26 60 -26 63 0 3 -9 17 -19 32 -10 15 -47 72 -82 127 -35 55 -91 136 -124 180 -80 106 -309 336 -413 414 -164 123 -393 261 -527 316 -22 10 -49 21 -60 26 -11 4 -46 20 -79 34 -32 14 -82 31 -110 39 -28 8 -82 24 -121 36 -104 31 -272 62 -445 81 -151 16 -540 5 -700 -21 -151 -24 -232 -41 -375 -80 -272 -73 -652 -239 -915 -400 -102 -63 -230 -147 -240 -160 -3 -3 -36 -28 -75 -55 -38 -27 -72 -52 -75 -55 -3 -3 -39 -33 -80 -65 -115 -90 -436 -397 -355 -340 22 16 42 32 45 35 3 3 26 21 53 40 26 18 47 37 47 42 0 4 4 8 10 8 5 0 40 21 77 48 38 26 80 53 96 61 15 8 27 18 27 23 0 4 5 8 11 8 6 0 23 8 37 19 63 43 367 202 447 232 27 11 60 24 73 29 107 47 246 95 377 131 22 6 51 15 65 20 63 20 313 68 460 88 210 28 360 34 568 22 203 -12 298 -22 397 -41 28 -6 86 -17 130 -25 166 -33 380 -105 505 -171 35 -19 69 -34 74 -34 5 0 39 -19 75 -42 269 -169 439 -319 573 -502 20 -28 50 -69 67 -91 32 -43 120 -211 163 -310 27 -60 66 -199 93 -330 21 -98 21 -443 0 -545 -63 -306 -118 -445 -252 -638 -204 -292 -510 -471 -941 -549 -76 -14 -151 -17 -347 -17 -246 0 -270 2 -503 44 -170 30 -416 108 -602 192 -89 40 -175 82 -180 87 -3 4 -30 19 -60 35 -30 16 -67 37 -82 48 -14 10 -29 18 -33 18 -14 0 -341 220 -450 303 -111 83 -291 229 -381 307 -22 19 -53 46 -70 59 -16 13 -63 54 -104 90 -89 78 -76 67 -180 161 -45 41 -94 86 -109 100 -16 14 -77 70 -137 126 -60 55 -165 152 -234 214 -69 62 -148 134 -175 159 -28 25 -68 61 -90 80 -22 19 -76 66 -120 106 -44 40 -109 97 -145 126 -36 30 -81 68 -100 86 -19 17 -54 46 -76 65 -23 18 -95 76 -160 129 -152 121 -306 239 -414 314 -47 32 -87 62 -90 65 -9 10 -299 195 -345 220 -16 9 -47 26 -67 38 -81 47 -111 63 -215 116 -132 66 -302 146 -313 146 -4 0 -32 11 -61 24 -191 84 -549 181 -789 215 -41 6 -107 15 -147 21 -87 12 -676 11 -753 -2z"/>
</g>
<animateTransform attributeName="transform" type="rotate" from="0 0 0" to="360 0 0" dur="5s" repeatCount="indefinite" />

</svg>